PS270 Final Project
…
PS270 Final Project

My final project

  Ally Jonas

library(tidyverse)
library(dplyr)
library(kableExtra)
library(nnet)
media_poli_ideology <- read_csv("/users/allyjonas/downloads/SOCIAL MEDIA IMPACT/social_media_political_content_test_data.csv")

media_poli_ideology

# A tibble: 2,800 × 23
     Age Gender    `Education Level` Occupation Political Affiliatio…¹
   <dbl> <chr>     <chr>             <chr>      <chr>                 
 1    62 Non-bina… Master's          Employed   Liberal               
 2    62 Non-bina… PhD               Unemployed Conservative          
 3    33 Male      PhD               Employed   Independent           
 4    70 Non-bina… PhD               Unemployed Liberal               
 5    18 Non-bina… Bachelor's        Employed   Independent           
 6    46 Female    Master's          Employed   Independent           
 7    55 Non-bina… Bachelor's        Employed   Liberal               
 8    71 Male      PhD               Unemployed Independent           
 9    65 Non-bina… Master's          Student    Independent           
10    66 Male      PhD               Student    Conservative          
# ℹ 2,790 more rows
# ℹ abbreviated name: ¹​`Political Affiliation`
# ℹ 18 more variables: `Geographic Location` <chr>,
#   `Social Media Usage Frequency` <chr>,
#   `Preferred Social Media` <chr>,
#   `Political Content Exposure` <chr>,
#   `Types of Political Content` <chr>, …
…
